{
  "phrases": {
    "shop": {
      "staticCards": "Statische Karten",
      "animatedCards": "Animierte Karten",
      "search": "Name",
      "sort": {
        "priceAscending": "Preis aufsteigend",
        "priceDescending": "Preis absteigend",
        "alphabetical": "Alphabetisch"
      },
      "unpurchasable": "Zeige unerhältliche Karten",
      "unowned": "Zeige nicht im Besitz",
      "equipped": "AUSGEWÄHLT",
      "purchase": {
        "canAfford": {
          "title": ":name: kaufen",
          "desc": "Bist du sicher, dass du :name: für :price: kaufen willst?",
          "yes": "Kaufen",
          "no": "Nein"
        },
        "cantAfford": {
          "title": ":name: kaufen",
          "desc": "Du kannst dir :name: nicht leisten, es kostet :price:",
          "btn": "Okay"
        }
      },
      "card": {
        "unpurchasable": "Nicht kaufbar",
        "level": "(Level: :level:)",
        "popup": {
          "title": "Nicht kaufbar",
          "desc": "Diese Karte ist nicht kaufbar.",
          "btn": "Okay"
        },
        "dontMeetRequirements": {
          "title": "Gruppen Anforderung",
          "desc": "Du hast nicht die erforderliche Gruppe für diese Karte.",
          "btn:": "Okay"
        },
        "dontMeetLevel": {
          "title": "Level Anforderung",
          "desc": "Du musst mindestens Level :level: sein, um diese Karte kaufen zu können.",
          "btn:": "Okay"
        }
      }
    },
    "card": {
      "phrases": {
        "suicide": "Du hast Selbstmord begangen",
        "world": "Das tat weh, oder?",
        "player": "Du wurdest getötet von"
      },
      "level": "Level :level:",
      "suicide": "Selbstmord",
      "world": "Welt",
      "dmg": "Du hast :dealtDmg: Schaden mit :dealtHits: ausgeteilt und :receivedDmg: Schaden mit :receivedHits: erhalten.",
      "hits": {
        "singular": "Treffer",
        "plural": "Treffern"
      },
      "respawn": {
          "msg": "Neueinstieg in :time:",
          "skip": {
              "msg": "Drücke :key:, um neu einzusteigen.",
              "key": "LEERTASTE"
          },
          "plural": "sekunden",
          "singular": "sekunde"
      }
    },
    "killfeed": {
      "dmg": "Du hast :dealtDmg: Schaden mit :dealtHits: ausgeteilt.",
      "killed": "Du hast getötet: ",
      "level": "Level"
    }
  }
}